{ "height":7,
 "layers":[
        {
         "data":[0, 0, 0, 0, 0, 0, 0, 0, 0, 0, 0, 0, 0, 0, 8, 0, 0, 0, 0, 0, 0, 0, 0, 0, 0, 0, 0, 0, 0, 0, 0, 0, 0, 0, 0, 0, 0, 0, 0, 0, 0, 0, 0, 0, 0, 0, 0, 0, 0, 0, 0, 0, 0, 0, 0, 0, 0, 0, 0, 0, 0, 0, 0, 0, 0, 0, 2, 2, 2, 2, 2, 2, 2, 2, 0, 0, 0, 0, 0, 0, 0, 0, 0, 0, 0, 0, 0, 0, 0, 0, 0, 0, 0, 0, 0, 0, 0, 0, 0, 0, 14, 2, 2, 2, 0, 0, 0, 0, 0, 0, 0, 0, 0, 0, 0, 0, 2, 2, 2, 15, 0, 0, 0, 0, 0, 5, 0, 0, 0, 0, 0, 0, 0, 0, 0, 0, 0, 0, 0, 0],
         "height":7,
         "name":"Level Layer",
         "opacity":1,
         "type":"tilelayer",
         "visible":true,
         "width":20,
         "x":0,
         "y":0
        }, 
        {
         "data":[0, 0, 0, 0, 0, 0, 0, 0, 0, 0, 0, 0, 0, 0, 0, 0, 0, 0, 0, 0, 0, 0, 0, 0, 0, 0, 0, 0, 0, 0, 0, 0, 0, 0, 0, 0, 0, 0, 0, 0, 0, 0, 0, 0, 0, 0, 0, 0, 0, 0, 0, 0, 0, 0, 0, 0, 0, 0, 0, 0, 0, 0, 0, 0, 0, 0, 23, 23, 23, 23, 23, 23, 23, 23, 0, 0, 0, 0, 0, 0, 0, 0, 0, 0, 0, 0, 0, 0, 0, 0, 0, 0, 0, 0, 0, 0, 0, 0, 0, 0, 23, 23, 23, 23, 0, 0, 0, 0, 0, 0, 0, 0, 0, 0, 0, 0, 23, 23, 23, 23, 0, 0, 0, 0, 23, 23, 0, 0, 0, 0, 0, 0, 0, 0, 23, 23, 0, 0, 0, 0],
         "height":7,
         "name":"Wall\/Structuring Layer",
         "opacity":1,
         "type":"tilelayer",
         "visible":true,
         "width":20,
         "x":0,
         "y":0
        }, 
        {
         "data":[0, 0, 0, 0, 0, 0, 0, 0, 0, 0, 0, 0, 0, 0, 0, 0, 0, 0, 0, 0, 0, 0, 0, 0, 0, 0, 0, 0, 0, 0, 0, 0, 0, 0, 0, 0, 0, 0, 0, 0, 0, 0, 0, 0, 0, 0, 0, 0, 0, 0, 0, 0, 0, 0, 0, 0, 0, 0, 0, 0, 0, 0, 0, 0, 0, 0, 0, 0, 0, 0, 0, 0, 0, 0, 0, 0, 0, 0, 0, 0, 0, 0, 0, 0, 0, 0, 0, 0, 0, 0, 0, 0, 0, 0, 0, 0, 0, 0, 0, 0, 0, 0, 0, 0, 0, 0, 0, 0, 0, 0, 0, 0, 0, 0, 0, 0, 0, 0, 0, 0, 0, 0, 0, 0, 0, 0, 0, 0, 0, 0, 0, 0, 0, 0, 0, 0, 0, 0, 0, 0],
         "height":7,
         "name":"Placeable Layer",
         "opacity":1,
         "type":"tilelayer",
         "visible":true,
         "width":20,
         "x":0,
         "y":0
        }, 
        {
         "data":[0, 0, 0, 0, 0, 0, 0, 0, 0, 0, 0, 0, 0, 0, 0, 0, 0, 0, 0, 0, 0, 0, 148, 149, 150, 151, 0, 0, 148, 149, 150, 151, 0, 0, 148, 149, 150, 151, 0, 0, 0, 0, 174, 175, 176, 177, 0, 0, 174, 175, 176, 177, 0, 0, 174, 175, 176, 177, 0, 0, 0, 0, 0, 0, 0, 0, 0, 0, 0, 0, 0, 0, 0, 0, 0, 0, 0, 0, 0, 0, 0, 0, 0, 0, 0, 0, 0, 0, 0, 0, 0, 0, 0, 0, 0, 0, 0, 0, 0, 0, 14, 0, 0, 0, 0, 0, 0, 0, 0, 0, 0, 0, 0, 0, 0, 0, 0, 0, 0, 15, 14, 0, 0, 0, 0, 0, 0, 0, 0, 0, 0, 0, 0, 0, 0, 0, 0, 0, 0, 15],
         "height":7,
         "name":"Background layer",
         "opacity":1,
         "type":"tilelayer",
         "visible":false,
         "width":20,
         "x":0,
         "y":0
        }, 
        {
         "data":[0, 0, 0, 0, 0, 0, 0, 4, 0, 0, 0, 0, 0, 0, 0, 0, 0, 0, 0, 0, 0, 0, 0, 0, 0, 0, 0, 0, 0, 0, 0, 0, 0, 0, 0, 0, 0, 0, 0, 0, 0, 0, 0, 0, 0, 0, 0, 0, 0, 0, 0, 0, 0, 0, 0, 0, 0, 0, 0, 0, 0, 0, 0, 0, 0, 0, 0, 0, 0, 0, 0, 0, 0, 0, 0, 0, 0, 0, 0, 0, 0, 0, 0, 0, 0, 0, 0, 0, 0, 0, 0, 0, 0, 0, 0, 0, 0, 0, 0, 0, 0, 0, 0, 0, 0, 0, 0, 0, 0, 0, 0, 0, 0, 0, 0, 0, 0, 0, 0, 0, 0, 0, 0, 0, 0, 0, 0, 0, 0, 0, 0, 0, 0, 0, 0, 0, 0, 0, 0, 0],
         "height":7,
         "name":"Available Prefabs",
         "opacity":1,
         "type":"tilelayer",
         "visible":true,
         "width":20,
         "x":0,
         "y":0
        }, 
        {
         "data":[0, 0, 0, 0, 0, 0, 0, 0, 17, 0, 0, 0, 0, 0, 0, 0, 0, 0, 0, 0, 0, 0, 0, 0, 0, 0, 0, 0, 0, 0, 0, 0, 0, 0, 0, 0, 0, 0, 0, 0, 0, 0, 0, 0, 0, 0, 0, 0, 0, 0, 0, 0, 0, 0, 0, 0, 0, 0, 0, 0, 0, 0, 0, 0, 0, 0, 0, 0, 0, 0, 0, 0, 0, 0, 0, 0, 0, 0, 0, 0, 0, 0, 0, 0, 0, 0, 0, 0, 0, 0, 0, 0, 0, 0, 0, 0, 0, 0, 0, 0, 0, 0, 0, 0, 0, 0, 0, 0, 0, 0, 0, 0, 0, 0, 0, 0, 0, 0, 0, 0, 0, 0, 0, 0, 0, 0, 0, 0, 0, 0, 0, 0, 0, 0, 17, 0, 0, 0, 0, 0],
         "height":7,
         "name":"Robot Layer",
         "opacity":1,
         "type":"tilelayer",
         "visible":true,
         "width":20,
         "x":0,
         "y":0
        }, 
        {
         "data":[4, 4, 4, 0, 0, 0, 0, 0, 0, 0, 0, 0, 0, 0, 0, 0, 0, 0, 0, 0, 4, 0, 0, 0, 0, 0, 0, 0, 0, 0, 0, 0, 0, 0, 0, 0, 0, 0, 0, 0, 0, 0, 0, 0, 0, 0, 0, 0, 0, 0, 0, 0, 0, 0, 0, 0, 0, 0, 0, 0, 0, 0, 0, 0, 0, 0, 0, 0, 0, 0, 0, 0, 0, 0, 0, 0, 0, 0, 0, 0, 0, 0, 0, 0, 0, 0, 0, 0, 0, 0, 0, 0, 0, 0, 0, 0, 0, 0, 0, 0, 0, 0, 0, 0, 0, 0, 0, 0, 0, 0, 0, 0, 0, 0, 0, 0, 0, 0, 0, 0, 0, 0, 0, 0, 0, 0, 0, 29, 0, 0, 0, 0, 0, 0, 0, 0, 0, 0, 0, 0],
         "height":7,
         "name":"Budget Layer",
         "opacity":1,
         "type":"tilelayer",
         "visible":true,
         "width":20,
         "x":0,
         "y":0
        }, 
        {
         "data":[0, 0, 0, 0, 0, 0, 0, 0, 0, 0, 0, 0, 0, 0, 0, 0, 0, 0, 0, 0, 0, 0, 0, 0, 0, 0, 0, 0, 0, 0, 0, 0, 0, 0, 0, 0, 0, 0, 0, 0, 0, 0, 0, 0, 0, 0, 0, 0, 0, 0, 0, 0, 0, 0, 0, 0, 0, 0, 0, 0, 0, 0, 0, 0, 0, 0, 0, 0, 0, 0, 0, 0, 0, 0, 0, 0, 0, 0, 0, 0, 0, 0, 0, 0, 0, 0, 0, 0, 0, 0, 0, 0, 0, 0, 0, 0, 0, 0, 0, 0, 0, 0, 0, 0, 0, 0, 0, 0, 0, 0, 0, 0, 0, 0, 0, 0, 0, 0, 0, 0, 0, 0, 0, 0, 0, 0, 0, 0, 0, 0, 0, 0, 0, 0, 0, 0, 0, 0, 0, 0],
         "height":7,
         "name":"Interractable Object 1",
         "opacity":1,
         "type":"tilelayer",
         "visible":false,
         "width":20,
         "x":0,
         "y":0
        }],
 "nextobjectid":1,
 "orientation":"orthogonal",
 "properties":
    {

    },
 "renderorder":"right-down",
 "tileheight":256,
 "tilesets":[
        {
         "firstgid":1,
         "image":"..\/..\/Level Editor\/LevelData\/Tilesets\/Conveyor\/Conveyor.png",
         "imageheight":256,
         "imagewidth":512,
         "margin":0,
         "name":"Conveyor",
         "properties":
            {

            },
         "spacing":0,
         "tilecount":2,
         "tileheight":256,
         "tilewidth":256
        }, 
        {
         "firstgid":3,
         "image":"..\/..\/Level Editor\/LevelData\/Tilesets\/Spring\/Spring.png",
         "imageheight":256,
         "imagewidth":512,
         "margin":0,
         "name":"Spring",
         "properties":
            {

            },
         "spacing":0,
         "tilecount":2,
         "tileheight":256,
         "tilewidth":256
        }, 
        {
         "firstgid":5,
         "image":"..\/..\/Level Editor\/LevelData\/Tilesets\/Fan\/Fan.png",
         "imageheight":512,
         "imagewidth":512,
         "margin":0,
         "name":"Fan",
         "properties":
            {

            },
         "spacing":0,
         "tilecount":4,
         "tileheight":256,
         "tilewidth":256
        }, 
        {
         "firstgid":9,
         "image":"..\/..\/Level Editor\/LevelData\/Tilesets\/Magnet.png",
         "imageheight":512,
         "imagewidth":512,
         "margin":0,
         "name":"Magnet",
         "properties":
            {

            },
         "spacing":0,
         "tilecount":4,
         "tileheight":256,
         "tilewidth":256
        }, 
        {
         "firstgid":13,
         "image":"..\/..\/Level Editor\/ExampleLevelData\/Tilesets\/Spawner\/Spawner.png",
         "imageheight":256,
         "imagewidth":512,
         "margin":0,
         "name":"Spawner",
         "properties":
            {

            },
         "spacing":0,
         "tilecount":2,
         "tileheight":256,
         "tilewidth":256
        }, 
        {
         "firstgid":15,
         "image":"..\/..\/Level Editor\/ExampleLevelData\/Tilesets\/Collector\/Collector.png",
         "imageheight":256,
         "imagewidth":512,
         "margin":0,
         "name":"Collector",
         "properties":
            {

            },
         "spacing":0,
         "tilecount":2,
         "tileheight":256,
         "tilewidth":256
        }, 
        {
         "firstgid":17,
         "image":"..\/..\/Level Editor\/LevelData\/Tilesets\/Robot\/Robot.png",
         "imageheight":256,
         "imagewidth":256,
         "margin":0,
         "name":"Robot",
         "properties":
            {

            },
         "spacing":0,
         "tilecount":1,
         "tileheight":256,
         "tilewidth":256
        }, 
        {
         "firstgid":18,
         "image":"..\/..\/Level Editor\/LevelData\/Tilesets\/Furnace\/Furnace.png",
         "imageheight":256,
         "imagewidth":256,
         "margin":0,
         "name":"Furnace",
         "properties":
            {

            },
         "spacing":0,
         "tilecount":1,
         "tileheight":256,
         "tilewidth":256
        }, 
        {
         "firstgid":19,
         "image":"..\/..\/Level Editor\/LevelData\/Tilesets\/Budget\/Money.png",
         "imageheight":512,
         "imagewidth":512,
         "margin":0,
         "name":"Money",
         "properties":
            {

            },
         "spacing":0,
         "tilecount":4,
         "tileheight":256,
         "tilewidth":256
        }, 
        {
         "firstgid":23,
         "image":"..\/..\/Level Editor\/LevelData\/Tilesets\/Walls and Floors\/Floor.png",
         "imageheight":256,
         "imagewidth":256,
         "margin":0,
         "name":"Floor",
         "properties":
            {

            },
         "spacing":0,
         "tilecount":1,
         "tileheight":256,
         "tilewidth":256,
         "transparentcolor":"#ff00ff"
        }, 
        {
         "firstgid":24,
         "image":"..\/..\/Level Editor\/LevelData\/Tilesets\/Walls and Floors\/Walls.png",
         "imageheight":256,
         "imagewidth":256,
         "margin":0,
         "name":"Walls",
         "properties":
            {

            },
         "spacing":0,
         "tilecount":1,
         "tileheight":256,
         "tilewidth":256,
         "transparentcolor":"#ff00ff"
        }, 
        {
         "firstgid":25,
         "image":"..\/..\/Level Editor\/ExampleLevelData\/Tilesets\/Window.png",
         "imageheight":256,
         "imagewidth":256,
         "margin":0,
         "name":"Window",
         "properties":
            {

            },
         "spacing":0,
         "tilecount":1,
         "tileheight":256,
         "tilewidth":256
        }, 
        {
         "firstgid":26,
         "image":"..\/..\/Level Editor\/ExampleLevelData\/Tilesets\/Button Prefab Temp Image.png",
         "imageheight":256,
         "imagewidth":256,
         "margin":0,
         "name":"Switch",
         "properties":
            {

            },
         "spacing":0,
         "tilecount":1,
         "tileheight":256,
         "tilewidth":256
        }, 
        {
         "firstgid":27,
         "image":"..\/..\/Level Editor\/ExampleLevelData\/Tilesets\/Door Prefab Temp Image.png",
         "imageheight":256,
         "imagewidth":256,
         "margin":0,
         "name":"door",
         "properties":
            {

            },
         "spacing":0,
         "tilecount":1,
         "tileheight":256,
         "tilewidth":256
        }, 
        {
         "firstgid":28,
         "image":"..\/..\/Level Editor\/ExampleLevelData\/Tilesets\/Cannon.png",
         "imageheight":256,
         "imagewidth":256,
         "margin":0,
         "name":"Cannon",
         "properties":
            {

            },
         "spacing":0,
         "tilecount":1,
         "tileheight":256,
         "tilewidth":256
        }, 
        {
         "firstgid":29,
         "image":"..\/..\/Level Editor\/ExampleLevelData\/Tilesets\/Camera.png",
         "imageheight":256,
         "imagewidth":256,
         "margin":0,
         "name":"Camera",
         "properties":
            {

            },
         "spacing":0,
         "tilecount":1,
         "tileheight":256,
         "tilewidth":256
        }, 
        {
         "firstgid":30,
         "image":"..\/..\/Level Editor\/ExampleLevelData\/Tilesets\/Window  Full Set.png",
         "imageheight":2560,
         "imagewidth":6656,
         "margin":0,
         "name":"Window Full Set",
         "properties":
            {

            },
         "spacing":0,
         "tilecount":260,
         "tileheight":256,
         "tilewidth":256
        }],
 "tilewidth":256,
 "version":1,
 "width":20
}